%YAML 1.1
%TAG !u! tag:unity3d.com,2011:
--- !u!78 &1
TagManager:
  serializedVersion: 2
  tags: []
  layers:
  - Default
  - TransparentFX
  - Ignore Raycast
  - 
  - Water
  - UI
  - 
  - 
  - Map
  - TextMask
  - Menu
  - Characters
  - Outline
  - 
  - 
  - 
  - 
  - 
  - 
  - 
  - 
  - 
  - 
  - 
  - 
  - 
  - 
  - 
  - 
  - 
  - 
  - 
  m_SortingLayers:
  - name: Default
    uniqueID: 0
    locked: 0
  - name: Map
    uniqueID: 2927001459
    locked: 0
  - name: Characters
    uniqueID: 3247239681
    locked: 0
  - name: UI
    uniqueID: 4072280563
    locked: 0
